{"links":[{"rel":"first","href":"https://morrisdickson.track-n-trace.net/api/v1/events?eventSearch=eventTime%3E2023-02-20T18:30:08.888Z&children=all&page=0&size=10"},{"rel":"self","href":"https://morrisdickson.track-n-trace.net/api/v1/events?eventSearch=eventTime%3E2023-02-20T18:30:08.888Z&size=10&children=all"},{"rel":"next","href":"https://morrisdickson.track-n-trace.net/api/v1/events?eventSearch=eventTime%3E2023-02-20T18:30:08.888Z&children=all&page=1&size=10"},{"rel":"last","href":"https://morrisdickson.track-n-trace.net/api/v1/events?eventSearch=eventTime%3E2023-02-20T18:30:08.888Z&children=all&page=9&size=10"}],"content":[{"eventId":1337737572148736,"eventExtId":null,"eventTime":"2023-02-21T18:30:08.888Z","eventTimeZoneOffset":"+00:00","processedTime":"2023-02-22T00:34:03Z","updatedTime":"2023-02-22T00:34:03Z","eventType":"Ship","eventStatus":"Success","extension":{"extAttrList":null,"sourceList":[{"type":"location","source":"urn:epc:id:sgln:0366869.00000.0"},{"type":"owning_party","source":"urn:epc:id:sgln:0366869.00000.0"}],"destinationList":[{"type":"location","source":"urn:epc:id:sgln:08634540004.6.0"},{"type":"owning_party","source":"urn:epc:id:sgln:08634540004.0.0"}],"ilmd":null},"bizStep":"urn:epcglobal:cbv:bizstep:shipping","disposition":"urn:epcglobal:cbv:disp:null","readPoint":"urn:epc:id:sgln:0366869.00000.0","bizLocation":"urn:epc:id:sgln:0366869.00000.0","bizTransactions":[{"bizTransaction":"urn:epcglobal:cbv:bt:0863454000404:611676","type":"urn:epcglobal:cbv:btt:po"},{"bizTransaction":"urn:epcglobal:cbv:bt:0863454000404:PR0823057","type":"urn:epcglobal:cbv:btt:desadv"}],"parentEpc":null,"epcList":["urn:epc:id:sscc:0366869.2000076129"],"items":[],"epcQtyDetails":null,"epcItemDetails":null,"epcLogisticType":null,"parentEpcLogisticType":null,"eventSummary":null,"links":[{"rel":"self","href":"https://morrisdickson.track-n-trace.net/api/v1/events/?eventId=1337737572148736&latest=false&root=false&includeItems=true&latestObjEvent=false&includeQty=false&includeEpcList=false&includeSummary=false"}]},{"eventId":1337737570444800,"eventExtId":null,"eventTime":"2023-02-21T18:30:07.888Z","eventTimeZoneOffset":"+00:00","processedTime":"2023-02-22T00:34:03Z","updatedTime":"2023-02-22T00:34:03Z","eventType":"Aggregate","eventStatus":"Success","extension":{"extAttrList":null,"sourceList":null,"destinationList":null,"ilmd":null},"bizStep":"urn:epcglobal:cbv:bizstep:packing","disposition":"urn:epcglobal:cbv:disp:in_progress","readPoint":"urn:epc:id:sgln:0366869.00000.0","bizLocation":"urn:epc:id:sgln:0366869.00000.0","bizTransactions":[],"parentEpc":"urn:epc:id:sscc:0366869.2000076129","epcList":["urn:epc:id:sscc:0366869.2000076129"],"items":[],"epcQtyDetails":null,"epcItemDetails":null,"epcLogisticType":null,"parentEpcLogisticType":null,"eventSummary":null,"links":[{"rel":"self","href":"https://morrisdickson.track-n-trace.net/api/v1/events/?eventId=1337737570444800&latest=false&root=false&includeItems=true&latestObjEvent=false&includeQty=false&includeEpcList=false&includeSummary=false"}]},{"eventId":1337737569060352,"eventExtId":null,"eventTime":"2023-02-21T18:30:06.888Z","eventTimeZoneOffset":"+00:00","processedTime":"2023-02-22T00:34:03Z","updatedTime":"2023-02-22T00:34:03Z","eventType":"Commission","eventStatus":"Success","extension":{"extAttrList":null,"sourceList":null,"destinationList":null,"ilmd":{"lotNumber":"211926","itemExpirationDate":"2024-10-31","itemManufacturedDate":null,"workOrderNumber":null,"sku":null}},"bizStep":"urn:epcglobal:cbv:bizstep:commissioning","disposition":"urn:epcglobal:cbv:disp:ACTIVE","readPoint":"urn:epc:id:sgln:0366869.00000.0","bizLocation":"urn:epc:id:sgln:0366869.00000.0","bizTransactions":[],"parentEpc":null,"epcList":["urn:epc:id:sgtin:0366869.056490.100000034490","urn:epc:id:sgtin:0366869.056490.100000034495","urn:epc:id:sgtin:0366869.056490.100000034468","urn:epc:id:sgtin:0366869.056490.100000034491"],"items":[],"epcQtyDetails":null,"epcItemDetails":null,"epcLogisticType":null,"parentEpcLogisticType":null,"eventSummary":null,"links":[{"rel":"self","href":"https://morrisdickson.track-n-trace.net/api/v1/events/?eventId=1337737569060352&latest=false&root=false&includeItems=true&latestObjEvent=false&includeQty=false&includeEpcList=false&includeSummary=false"}]},{"eventId":1337737567561216,"eventExtId":null,"eventTime":"2023-02-21T18:30:05.888Z","eventTimeZoneOffset":"+00:00","processedTime":"2023-02-22T00:34:03Z","updatedTime":"2023-02-22T00:34:03Z","eventType":"Commission","eventStatus":"Success","extension":{"extAttrList":null,"sourceList":null,"destinationList":null,"ilmd":{"lotNumber":"211926","itemExpirationDate":"2024-10-31","itemManufacturedDate":null,"workOrderNumber":null,"sku":null}},"bizStep":"urn:epcglobal:cbv:bizstep:commissioning","disposition":"urn:epcglobal:cbv:disp:ACTIVE","readPoint":"urn:epc:id:sgln:0366869.00000.0","bizLocation":"urn:epc:id:sgln:0366869.00000.0","bizTransactions":[],"parentEpc":null,"epcList":["urn:epc:id:sscc:0366869.2000076129"],"items":[],"epcQtyDetails":null,"epcItemDetails":null,"epcLogisticType":null,"parentEpcLogisticType":null,"eventSummary":null,"links":[{"rel":"self","href":"https://morrisdickson.track-n-trace.net/api/v1/events/?eventId=1337737567561216&latest=false&root=false&includeItems=true&latestObjEvent=false&includeQty=false&includeEpcList=false&includeSummary=false"}]},{"eventId":1337737514157568,"eventExtId":null,"eventTime":"2023-02-21T17:53:16.378Z","eventTimeZoneOffset":"+00:00","processedTime":"2023-02-22T00:33:56Z","updatedTime":"2023-02-22T00:33:56Z","eventType":"Ship","eventStatus":"Success","extension":{"extAttrList":null,"sourceList":[{"type":"location","source":"urn:epc:id:sgln:0366869.00000.0"},{"type":"owning_party","source":"urn:epc:id:sgln:0366869.00000.0"}],"destinationList":[{"type":"location","source":"urn:epc:id:sgln:08634540004.6.0"},{"type":"owning_party","source":"urn:epc:id:sgln:08634540004.0.0"}],"ilmd":null},"bizStep":"urn:epcglobal:cbv:bizstep:shipping","disposition":"urn:epcglobal:cbv:disp:null","readPoint":"urn:epc:id:sgln:0366869.00000.0","bizLocation":"urn:epc:id:sgln:0366869.00000.0","bizTransactions":[{"bizTransaction":"urn:epcglobal:cbv:bt:0863454000404:611665","type":"urn:epcglobal:cbv:btt:po"},{"bizTransaction":"urn:epcglobal:cbv:bt:0863454000404:PR0823056","type":"urn:epcglobal:cbv:btt:desadv"}],"parentEpc":null,"epcList":["urn:epc:id:sscc:0366869.2000076128"],"items":[],"epcQtyDetails":null,"epcItemDetails":null,"epcLogisticType":null,"parentEpcLogisticType":null,"eventSummary":null,"links":[{"rel":"self","href":"https://morrisdickson.track-n-trace.net/api/v1/events/?eventId=1337737514157568&latest=false&root=false&includeItems=true&latestObjEvent=false&includeQty=false&includeEpcList=false&includeSummary=false"}]},{"eventId":1337737511953920,"eventExtId":null,"eventTime":"2023-02-21T17:53:15.378Z","eventTimeZoneOffset":"+00:00","processedTime":"2023-02-22T00:33:56Z","updatedTime":"2023-02-22T00:33:56Z","eventType":"Aggregate","eventStatus":"Success","extension":{"extAttrList":null,"sourceList":null,"destinationList":null,"ilmd":null},"bizStep":"urn:epcglobal:cbv:bizstep:packing","disposition":"urn:epcglobal:cbv:disp:in_progress","readPoint":"urn:epc:id:sgln:0366869.00000.0","bizLocation":"urn:epc:id:sgln:0366869.00000.0","bizTransactions":[],"parentEpc":"urn:epc:id:sscc:0366869.2000076128","epcList":["urn:epc:id:sscc:0366869.2000076128"],"items":[],"epcQtyDetails":null,"epcItemDetails":null,"epcLogisticType":null,"parentEpcLogisticType":null,"eventSummary":null,"links":[{"rel":"self","href":"https://morrisdickson.track-n-trace.net/api/v1/events/?eventId=1337737511953920&latest=false&root=false&includeItems=true&latestObjEvent=false&includeQty=false&includeEpcList=false&includeSummary=false"}]},{"eventId":1337737510520320,"eventExtId":null,"eventTime":"2023-02-21T17:53:14.378Z","eventTimeZoneOffset":"+00:00","processedTime":"2023-02-22T00:33:56Z","updatedTime":"2023-02-22T00:33:56Z","eventType":"Aggregate","eventStatus":"Success","extension":{"extAttrList":null,"sourceList":null,"destinationList":null,"ilmd":null},"bizStep":"urn:epcglobal:cbv:bizstep:packing","disposition":"urn:epcglobal:cbv:disp:in_progress","readPoint":"urn:epc:id:sgln:0366869.00000.0","bizLocation":"urn:epc:id:sgln:0366869.00000.0","bizTransactions":[],"parentEpc":"urn:epc:id:sgtin:0366869.120490.200000221290","epcList":["urn:epc:id:sgtin:0366869.120490.200000221290"],"items":[],"epcQtyDetails":null,"epcItemDetails":null,"epcLogisticType":null,"parentEpcLogisticType":null,"eventSummary":null,"links":[{"rel":"self","href":"https://morrisdickson.track-n-trace.net/api/v1/events/?eventId=1337737510520320&latest=false&root=false&includeItems=true&latestObjEvent=false&includeQty=false&includeEpcList=false&includeSummary=false"}]},{"eventId":1337737509078528,"eventExtId":null,"eventTime":"2023-02-21T17:53:13.378Z","eventTimeZoneOffset":"+00:00","processedTime":"2023-02-22T00:33:56Z","updatedTime":"2023-02-22T00:33:56Z","eventType":"Aggregate","eventStatus":"Success","extension":{"extAttrList":null,"sourceList":null,"destinationList":null,"ilmd":null},"bizStep":"urn:epcglobal:cbv:bizstep:packing","disposition":"urn:epcglobal:cbv:disp:in_progress","readPoint":"urn:epc:id:sgln:0366869.00000.0","bizLocation":"urn:epc:id:sgln:0366869.00000.0","bizTransactions":[],"parentEpc":"urn:epc:id:sgtin:0366869.120490.200000221291","epcList":["urn:epc:id:sgtin:0366869.120490.200000221291"],"items":[],"epcQtyDetails":null,"epcItemDetails":null,"epcLogisticType":null,"parentEpcLogisticType":null,"eventSummary":null,"links":[{"rel":"self","href":"https://morrisdickson.track-n-trace.net/api/v1/events/?eventId=1337737509078528&latest=false&root=false&includeItems=true&latestObjEvent=false&includeQty=false&includeEpcList=false&includeSummary=false"}]},{"eventId":1337737507374592,"eventExtId":null,"eventTime":"2023-02-21T17:53:12.378Z","eventTimeZoneOffset":"+00:00","processedTime":"2023-02-22T00:33:56Z","updatedTime":"2023-02-22T00:33:56Z","eventType":"Aggregate","eventStatus":"Success","extension":{"extAttrList":null,"sourceList":null,"destinationList":null,"ilmd":null},"bizStep":"urn:epcglobal:cbv:bizstep:packing","disposition":"urn:epcglobal:cbv:disp:in_progress","readPoint":"urn:epc:id:sgln:0366869.00000.0","bizLocation":"urn:epc:id:sgln:0366869.00000.0","bizTransactions":[],"parentEpc":"urn:epc:id:sgtin:0366869.140490.200000196201","epcList":["urn:epc:id:sgtin:0366869.140490.200000196201"],"items":[],"epcQtyDetails":null,"epcItemDetails":null,"epcLogisticType":null,"parentEpcLogisticType":null,"eventSummary":null,"links":[{"rel":"self","href":"https://morrisdickson.track-n-trace.net/api/v1/events/?eventId=1337737507374592&latest=false&root=false&includeItems=true&latestObjEvent=false&includeQty=false&includeEpcList=false&includeSummary=false"}]},{"eventId":1337737505842688,"eventExtId":null,"eventTime":"2023-02-21T17:53:11.378Z","eventTimeZoneOffset":"+00:00","processedTime":"2023-02-22T00:33:55Z","updatedTime":"2023-02-22T00:33:55Z","eventType":"Aggregate","eventStatus":"Success","extension":{"extAttrList":null,"sourceList":null,"destinationList":null,"ilmd":null},"bizStep":"urn:epcglobal:cbv:bizstep:packing","disposition":"urn:epcglobal:cbv:disp:in_progress","readPoint":"urn:epc:id:sgln:0366869.00000.0","bizLocation":"urn:epc:id:sgln:0366869.00000.0","bizTransactions":[],"parentEpc":"urn:epc:id:sgtin:0366869.120490.200000221293","epcList":["urn:epc:id:sgtin:0366869.120490.200000221293"],"items":[],"epcQtyDetails":null,"epcItemDetails":null,"epcLogisticType":null,"parentEpcLogisticType":null,"eventSummary":null,"links":[{"rel":"self","href":"https://morrisdickson.track-n-trace.net/api/v1/events/?eventId=1337737505842688&latest=false&root=false&includeItems=true&latestObjEvent=false&includeQty=false&includeEpcList=false&includeSummary=false"}]}],"page":{"size":10,"totalElements":96,"totalPages":10,"number":0}}